Ivan	Petrenko	Ivanovich	ivan.petrenko@gmail.com	100000000001	100000000111	100000000200	100000000300
Olga	Kovalenko	Viktorivna	olga.kovalenko@gmail.com	100000000002	100000000400	100000000500
Andriy	Melnik	Olexiyovych	andriy.melnik@gmail.com	100000000003	100000000600	100000000700
Natalia	Sydorenko	Petrivna	natalia.sydorenko@gmail.com	100000000112	100000000301
Oleg	Kucher	Mykolayovych	oleg.kucher@gmail.com	100000000900
Marina	Ivanova	Sergeevna	marina.ivanova@gmail.com	100000000004	100000000302	100000000901	100000001100
Vladimir	Lisovyi	Igorevich	vladimir.lisovyi@gmail.com	100000000201
Anna	Pavlova	Vitaliivna	anna.pavlova@gmail.com	100000001000
Dmytro	Tkachenko	Olexandrovych	dmytro.tkachenko@gmail.com	100000000601	100000001101	100000001200
Yulia	Ivanenko	Volodymyrivna	yulia.ivanenko@gmail.com	100000000005
Mykhailo	Lozinskyi	Mykhailovich	mykhailo.lozinskyi@gmail.com	100000000006	100000000113